{
	"info": {
		"_postman_id": "329cde65-c70b-40ee-a76f-87fc6d1e2020",
		"name": "SOS",
		"schema": "https://schema.getpostman.com/json/collection/v2.1.0/collection.json"
	},
	"item": [
		{
			"name": "LoginV4Endpoints",
			"item": [
				{
					"name": "Login - Successful",
					"event": [
						{
							"listen": "test",
							"script": {
								"exec": [
									"var body = JSON.parse(responseBody);\r",
									"var authorizationToken = body.data.authorizationToken\r",
									"pm.environment.set(\"authToken\", authorizationToken);\r",
									"\r",
									"pm.test(\"Status code is 200\", function () {\r",
									"    pm.response.to.have.status(200);\r",
									"});\r",
									"pm.test(\"Status is SUCCESS\", function () {\r",
									"    var jsonData = pm.response.json();\r",
									"    pm.expect(jsonData.status).to.eql(\"SUCCESS\");\r",
									"});\r",
									"\r",
									"pm.test(\"authorizationToken is Present\", function () {\r",
									"    pm.expect(pm.response.text()).to.include(\"authorizationToken\");\r",
									"});\r",
									"\r",
									"pm.test(\"refreshToken is Present\", function () {\r",
									"    pm.expect(pm.response.text()).to.include(\"refreshToken\");\r",
									"});\r",
									"\r",
									"pm.test(\"message is Present\", function () {\r",
									"    pm.expect(pm.response.text()).to.include(\"message\");\r",
									"});\r",
									"pm.test(\"Message contains 'Login Successful'\", function () {\r",
									"    var jsonData = pm.response.json();\r",
									"    pm.expect(jsonData.message).to.eql(\"Login successful\");\r",
									"});\r",
									"pm.test(\"Response time is less than 2000ms\", function () {\r",
									"    pm.expect(pm.response.responseTime).to.be.below(2000);\r",
									"});\r",
									""
								],
								"type": "text/javascript"
							}
						}
					],
					"request": {
						"method": "POST",
						"header": [
							{
								"key": "Content-Type",
								"value": "application/json",
								"type": "default"
							}
						],
						"body": {
							"mode": "raw",
							"raw": "{\n    \"phoneNo\": \"+2348136516016\",\n    \"password\": \"Opeyemi@61\"\n}",
							"options": {
								"raw": {
									"language": "json"
								}
							}
						},
						"url": {
							"raw": "{{url_qa}}/v4/login",
							"host": [
								"{{url_qa}}"
							],
							"path": [
								"v4",
								"login"
							]
						}
					},
					"response": []
				},
				{
					"name": "Login - No PhoneNo and Password Fields",
					"event": [
						{
							"listen": "test",
							"script": {
								"exec": [
									"\r",
									"\r",
									"pm.test(\"Status code is 200\", function () {\r",
									"    pm.response.to.have.status(200);\r",
									"});\r",
									"\r",
									"pm.test(\"Status is SUCCESS\", function () {\r",
									"    var jsonData = pm.response.json();\r",
									"    pm.expect(jsonData.status).to.eql(\"SUCCESS\");\r",
									"});\r",
									"\r",
									"pm.test(\"authorizationToken is Present\", function () {\r",
									"    pm.expect(pm.response.text()).to.include(\"authorizationToken\");\r",
									"});\r",
									"\r",
									"pm.test(\"refreshToken is Present\", function () {\r",
									"    pm.expect(pm.response.text()).to.include(\"refreshToken\");\r",
									"});\r",
									"\r",
									"pm.test(\"message is Present\", function () {\r",
									"    pm.expect(pm.response.text()).to.include(\"message\");\r",
									"});\r",
									"pm.test(\"Message contains 'Login Successful'\", function () {\r",
									"    var jsonData = pm.response.json();\r",
									"    pm.expect(jsonData.message).to.eql(\"Login successful\");\r",
									"});\r",
									"\r",
									"pm.test(\"Response time is less than 2000ms\", function () {\r",
									"    pm.expect(pm.response.responseTime).to.be.below(2000);\r",
									"});"
								],
								"type": "text/javascript"
							}
						}
					],
					"request": {
						"method": "POST",
						"header": [],
						"body": {
							"mode": "raw",
							"raw": "{\n  \n}",
							"options": {
								"raw": {
									"language": "json"
								}
							}
						},
						"url": {
							"raw": "{{url_qa}}/v4/login",
							"host": [
								"{{url_qa}}"
							],
							"path": [
								"v4",
								"login"
							]
						}
					},
					"response": []
				},
				{
					"name": "Login - No PhoneNumberField",
					"event": [
						{
							"listen": "test",
							"script": {
								"exec": [
									"\r",
									"\r",
									"pm.test(\"Status code is 400\", function () {\r",
									"    pm.response.to.have.status(400);\r",
									"});\r",
									"\r",
									"pm.test(\"Status is ERROR\", function () {\r",
									"    var jsonData = pm.response.json();\r",
									"    pm.expect(jsonData.status).to.eql(\"ERROR\");\r",
									"});\r",
									"\r",
									"pm.test(\"fieldErrors is Present\", function () {\r",
									"    pm.expect(pm.response.text()).to.include(\"fieldErrors\");\r",
									"});\r",
									"\r",
									"pm.test(\"fieldName is Present\", function () {\r",
									"    pm.expect(pm.response.text()).to.include(\"fieldName\");\r",
									"});\r",
									"\r",
									"pm.test(\"fieldError is Present\", function () {\r",
									"    pm.expect(pm.response.text()).to.include(\"fieldError\");\r",
									"});\r",
									"pm.test(\"fieldName contains 'Password'\", function () {\r",
									"    var jsonData = pm.response.json();\r",
									"    pm.expect(jsonData.data.fieldErrors[0].fieldName).to.eql(\"phoneNo\");\r",
									"});\r",
									"\r",
									"pm.test(\"Message contains 'INVALID_PHONE_NUMBER'\", function () {\r",
									"    var jsonData = pm.response.json();\r",
									"    pm.expect(jsonData.message).to.eql(\"phoneNo must not be null\");\r",
									"});\r",
									"\r",
									"pm.test(\"Response time is less than 2000ms\", function () {\r",
									"    pm.expect(pm.response.responseTime).to.be.below(2000);\r",
									"});"
								],
								"type": "text/javascript"
							}
						}
					],
					"request": {
						"method": "POST",
						"header": [],
						"body": {
							"mode": "raw",
							"raw": "{\n    \"password\": \"Opeyemi@61\"\n}",
							"options": {
								"raw": {
									"language": "json"
								}
							}
						},
						"url": {
							"raw": "{{url_qa}}/v4/login",
							"host": [
								"{{url_qa}}"
							],
							"path": [
								"v4",
								"login"
							]
						}
					},
					"response": []
				},
				{
					"name": "Login - No PasswordField",
					"event": [
						{
							"listen": "test",
							"script": {
								"exec": [
									"\r",
									"\r",
									"pm.test(\"Status code is 400\", function () {\r",
									"    pm.response.to.have.status(400);\r",
									"});\r",
									"\r",
									"pm.test(\"Status is ERROR\", function () {\r",
									"    var jsonData = pm.response.json();\r",
									"    pm.expect(jsonData.status).to.eql(\"ERROR\");\r",
									"});\r",
									"\r",
									"pm.test(\"fieldErrors is Present\", function () {\r",
									"    pm.expect(pm.response.text()).to.include(\"fieldErrors\");\r",
									"});\r",
									"\r",
									"pm.test(\"fieldName is Present\", function () {\r",
									"    pm.expect(pm.response.text()).to.include(\"fieldName\");\r",
									"});\r",
									"\r",
									"pm.test(\"fieldError is Present\", function () {\r",
									"    pm.expect(pm.response.text()).to.include(\"fieldError\");\r",
									"});\r",
									"pm.test(\"fieldName contains 'Password'\", function () {\r",
									"    var jsonData = pm.response.json();\r",
									"    pm.expect(jsonData.data.fieldErrors[0].fieldName).to.eql(\"password\");\r",
									"});\r",
									"pm.test(\"Message contains 'Login Successful'\", function () {\r",
									"    var jsonData = pm.response.json();\r",
									"    pm.expect(jsonData.message).to.eql(\"password must not be null\");\r",
									"});\r",
									"\r",
									"pm.test(\"Response time is less than 2000ms\", function () {\r",
									"    pm.expect(pm.response.responseTime).to.be.below(2000);\r",
									"});"
								],
								"type": "text/javascript"
							}
						}
					],
					"request": {
						"method": "POST",
						"header": [],
						"body": {
							"mode": "raw",
							"raw": "{\n    \"phoneNo\": \"+2348136516016\"\n}",
							"options": {
								"raw": {
									"language": "json"
								}
							}
						},
						"url": {
							"raw": "{{url_qa}}/v4/login",
							"host": [
								"{{url_qa}}"
							],
							"path": [
								"v4",
								"login"
							]
						}
					},
					"response": []
				},
				{
					"name": "Login - Invalid Password",
					"event": [
						{
							"listen": "test",
							"script": {
								"exec": [
									"\r",
									"\r",
									"pm.test(\"Status code is 400\", function () {\r",
									"    pm.response.to.have.status(400);\r",
									"});\r",
									"\r",
									"pm.test(\"Status is ERROR\", function () {\r",
									"    var jsonData = pm.response.json();\r",
									"    pm.expect(jsonData.status).to.eql(\"ERROR\");\r",
									"});\r",
									"\r",
									"pm.test(\"data is Present\", function () {\r",
									"    pm.expect(pm.response.text()).to.include(\"data\");\r",
									"});\r",
									"\r",
									"pm.test(\"Message contains 'Login failed, please try again'\", function () {\r",
									"    var jsonData = pm.response.json();\r",
									"    pm.expect(jsonData.message).to.eql(\"Login failed, please try again\");\r",
									"});\r",
									"\r",
									"pm.test(\"Response time is less than 2000ms\", function () {\r",
									"    pm.expect(pm.response.responseTime).to.be.below(2000);\r",
									"});"
								],
								"type": "text/javascript"
							}
						}
					],
					"request": {
						"method": "POST",
						"header": [],
						"body": {
							"mode": "raw",
							"raw": "{\n    \"phoneNo\": \"+2348136516016\",\n    \"password\": \"Opeyemi@6\"\n}",
							"options": {
								"raw": {
									"language": "json"
								}
							}
						},
						"url": {
							"raw": "{{url_qa}}/v4/login",
							"host": [
								"{{url_qa}}"
							],
							"path": [
								"v4",
								"login"
							]
						}
					},
					"response": []
				},
				{
					"name": "Login - Invalid PhoneNo",
					"event": [
						{
							"listen": "test",
							"script": {
								"exec": [
									"\r",
									"\r",
									"pm.test(\"Status code is 400\", function () {\r",
									"    pm.response.to.have.status(400);\r",
									"});\r",
									"\r",
									"pm.test(\"Status is ERROR\", function () {\r",
									"    var jsonData = pm.response.json();\r",
									"    pm.expect(jsonData.status).to.eql(\"ERROR\");\r",
									"});\r",
									"\r",
									"pm.test(\"fieldErrors is Present\", function () {\r",
									"    pm.expect(pm.response.text()).to.include(\"fieldErrors\");\r",
									"});\r",
									"\r",
									"pm.test(\"fieldName is Present\", function () {\r",
									"    pm.expect(pm.response.text()).to.include(\"fieldName\");\r",
									"});\r",
									"\r",
									"pm.test(\"fieldError is Present\", function () {\r",
									"    pm.expect(pm.response.text()).to.include(\"fieldError\");\r",
									"});\r",
									"pm.test(\"Message contains 'Login Successful'\", function () {\r",
									"    var jsonData = pm.response.json();\r",
									"    pm.expect(jsonData.message).to.eql(\"INVALID_PHONE_NUMBER\");\r",
									"});\r",
									"\r",
									"pm.test(\"Response time is less than 2000ms\", function () {\r",
									"    pm.expect(pm.response.responseTime).to.be.below(2000);\r",
									"});"
								],
								"type": "text/javascript"
							}
						}
					],
					"request": {
						"method": "POST",
						"header": [],
						"body": {
							"mode": "raw",
							"raw": "{\n    \"phoneNo\": \"+234813651601\",\n    \"password\": \"Opeyemi@61\"\n}",
							"options": {
								"raw": {
									"language": "json"
								}
							}
						},
						"url": {
							"raw": "{{url_qa}}/v4/login",
							"host": [
								"{{url_qa}}"
							],
							"path": [
								"v4",
								"login"
							]
						}
					},
					"response": []
				}
			]
		},
		{
			"name": "GetUser",
			"item": [
				{
					"name": "Get user info only",
					"protocolProfileBehavior": {
						"disableBodyPruning": true
					},
					"request": {
						"auth": {
							"type": "bearer",
							"bearer": [
								{
									"key": "token",
									"value": "eyJhbGciOiJSUzI1NiIsInR5cCI6IkpXVCJ9.eyJleHAiOjE2NDE0MTc0NDUsInVzZXJfbmFtZSI6IjIzNDgxMzY1MTYwMTYiLCJhdXRob3JpdGllcyI6WyJST0xFX0dVRVNUIl0sImp0aSI6IjU2NjY3ZmI5LWI1Y2UtNGI5YS1iOWRlLTJiMTM5ODYzMDVmYyIsImNsaWVudF9pZCI6Im96ZS1zYW5kYm94Iiwic2NvcGUiOlsicmVhZCIsIndyaXRlIl19.i-ZMF93SJMc0nXkhVBiz4wpN4RqGIBi3URzfvviJOElr6BwJ7XXO7zyCj9gTf0u404X9YrjnOaTnMYQY6PSbPV-yr30iuX0YceLtVKMJpAk_JjEc4MfDRHlSL4wD__Dafuwb2k-AVDJmvqnOAYFuijSByuql_9uhm0lfp4qZrqjYadQiE5GS6lqYtEuVm1c9ZsfK4-XauRCifWlNyHUC3vOtZdsTdXiEzWjNOvAIc6aBm7HjoFwI36Ctc6vKbyf435w4k7jJWPZ1KRZ3jmoZFiwcJMDWJ2aIiGhpJq0g7ES9oP03YGOMKL5xR_Nvv_oG1pMnd4VCm7IJhmXaErA6Xg",
									"type": "string"
								}
							]
						},
						"method": "GET",
						"header": [],
						"body": {
							"mode": "raw",
							"raw": "",
							"options": {
								"raw": {
									"language": "json"
								}
							}
						},
						"url": {
							"raw": "{{qa_url}}/api/v4/user",
							"host": [
								"{{qa_url}}"
							],
							"path": [
								"api",
								"v4",
								"user"
							]
						}
					},
					"response": []
				},
				{
					"name": "Get user and business info",
					"request": {
						"auth": {
							"type": "bearer",
							"bearer": [
								{
									"key": "token",
									"value": "eyJhbGciOiJSUzI1NiIsInR5cCI6IkpXVCJ9.eyJleHAiOjE2NDE0MTc0NDUsInVzZXJfbmFtZSI6IjIzNDgxMzY1MTYwMTYiLCJhdXRob3JpdGllcyI6WyJST0xFX0dVRVNUIl0sImp0aSI6IjU2NjY3ZmI5LWI1Y2UtNGI5YS1iOWRlLTJiMTM5ODYzMDVmYyIsImNsaWVudF9pZCI6Im96ZS1zYW5kYm94Iiwic2NvcGUiOlsicmVhZCIsIndyaXRlIl19.i-ZMF93SJMc0nXkhVBiz4wpN4RqGIBi3URzfvviJOElr6BwJ7XXO7zyCj9gTf0u404X9YrjnOaTnMYQY6PSbPV-yr30iuX0YceLtVKMJpAk_JjEc4MfDRHlSL4wD__Dafuwb2k-AVDJmvqnOAYFuijSByuql_9uhm0lfp4qZrqjYadQiE5GS6lqYtEuVm1c9ZsfK4-XauRCifWlNyHUC3vOtZdsTdXiEzWjNOvAIc6aBm7HjoFwI36Ctc6vKbyf435w4k7jJWPZ1KRZ3jmoZFiwcJMDWJ2aIiGhpJq0g7ES9oP03YGOMKL5xR_Nvv_oG1pMnd4VCm7IJhmXaErA6Xg",
									"type": "string"
								}
							]
						},
						"method": "GET",
						"header": [],
						"url": {
							"raw": "{{qa_url}}/api/v4/userInfo",
							"host": [
								"{{qa_url}}"
							],
							"path": [
								"api",
								"v4",
								"userInfo"
							]
						}
					},
					"response": [
						{
							"name": "Get user and business info",
							"originalRequest": {
								"method": "GET",
								"header": [],
								"url": {
									"raw": "{{base_url}}/api/v4/userInfo",
									"host": [
										"{{base_url}}"
									],
									"path": [
										"api",
										"v4",
										"userInfo"
									]
								}
							},
							"status": "OK",
							"code": 200,
							"_postman_previewlanguage": "json",
							"header": [
								{
									"key": "X-Content-Type-Options",
									"value": "nosniff"
								},
								{
									"key": "X-XSS-Protection",
									"value": "1; mode=block"
								},
								{
									"key": "Cache-Control",
									"value": "no-cache, no-store, max-age=0, must-revalidate"
								},
								{
									"key": "Pragma",
									"value": "no-cache"
								},
								{
									"key": "Expires",
									"value": "0"
								},
								{
									"key": "X-Frame-Options",
									"value": "DENY"
								},
								{
									"key": "Content-Type",
									"value": "application/json;charset=UTF-8"
								},
								{
									"key": "Transfer-Encoding",
									"value": "chunked"
								},
								{
									"key": "Date",
									"value": "Mon, 20 Dec 2021 09:56:00 GMT"
								}
							],
							"cookie": [],
							"body": "{\n    \"status\": \"SUCCESS\",\n    \"data\": {\n        \"userInfo\": {\n            \"name\": \"Opeye Grace\",\n            \"username\": \"2348136516016\",\n            \"id\": 1722,\n            \"email\": \"opeyemi@oze.guru\",\n            \"roles\": [\n                {\n                    \"id\": 1,\n                    \"name\": \"ROLE_BUSINESS_OWNER\",\n                    \"description\": \"Owner\",\n                    \"hierarchyIndex\": 1\n                }\n            ],\n            \"activeFeatures\": [\n                \"PHONE_ACCESS\",\n                \"WEB_ACCESS\",\n                \"ONE_USER_ACCESS\",\n                \"THREE_USER_ACCESS\",\n                \"TEN_USER_ACCESS\",\n                \"RECORD_SALES_EXPENSES\",\n                \"RECORD_NS_NE\",\n                \"CHANGE_TRX_STATUS\",\n                \"TRACK_DEBTS\",\n                \"TEN_RECEIPTS_PER_MONTH\",\n                \"TWENTY_FIVE_RECEIPTS_PER_MONTH\",\n                \"UNLIMITED_RECEIPTS_PER_MONTH\",\n                \"NO_TEAM_ACCESS\",\n                \"RECEIVE_PAYMENT_REMINDERS\",\n                \"RECEIVE_AND_SEND_PAYMENT_REMINDERS\",\n                \"RECEIVE_AND_SEND_DIGITAL_PAYMENT\",\n                \"SIMPLE_DASHBOARD_ACCESS\",\n                \"BASIC_DASHBOARD_ACCESS\",\n                \"ENHANCED_DASHBOARD_ACCESS\",\n                \"SAVE_FIVE_FILTERS\",\n                \"SAVE_UNLIMITED_FILTERS\",\n                \"EXPORT_90_DAYS_HISTORY\",\n                \"EXPORT_1_YEAR_HISTORY\",\n                \"EXPORT_UNLIMITED_HISTORY\",\n                \"CS_ONLY\",\n                \"CHAT_COACH\",\n                \"CHAT_AND_CALL_COACH\",\n                \"BOOK_DELIVERIES\",\n                \"ACCESS_PRIVATE_GROUP_WITH_BUSINESS_DEV\",\n                \"NO_ACCESS_ON_COMPUTER\",\n                \"INCLUDE_LOGO_ON_RECEIPT\",\n                \"DOWNLOAD_YOUR_TRANSACTION_DATA\",\n                \"CANNOT_DOWNLOAD_TRX_DATA\",\n                \"NO_CUSTOM_FILTER\",\n                \"NO_OZE_WEB\",\n                \"PROMO_PAYMENT_1_0_FREE_FEES\"\n            ],\n            \"prefs\": {\n                \"termsAndConditions\": true,\n                \"viewedTrialBreakdown\": true\n            },\n            \"activeSubscription\": {\n                \"id\": 595,\n                \"subscriptionPlan\": {\n                    \"id\": 23,\n                    \"currency\": \"NGN\",\n                    \"amount\": 2500,\n                    \"plan\": \"PLATINUM\",\n                    \"period\": \"MONTHLY\",\n                    \"active\": true\n                },\n                \"currency\": \"NGN\",\n                \"amount\": 2500,\n                \"nextRenewDate\": 1642345081000,\n                \"subscriptionDate\": 1639666681000,\n                \"lastUpdatedDate\": 1639666681000,\n                \"comment\": \"User subscribed for PLATINUM\",\n                \"onTrial\": false,\n                \"active\": true,\n                \"gracePeriod\": false,\n                \"recurring\": true\n            },\n            \"userGoals\": {\n                \"id\": 1428,\n                \"goalSeeDashboard\": true,\n                \"goalSendReceipt\": true,\n                \"goalAddCategory\": true,\n                \"goalSetLocation\": true,\n                \"goalMrkUnpaid\": true,\n                \"goalRemindCustomer\": true,\n                \"goalReadCoach\": false,\n                \"goalFillAllFields\": true,\n                \"goalPaySalary\": true,\n                \"goalGetPremium\": true,\n                \"goalOneMonthAnniversary\": true,\n                \"goalUseFilter\": true,\n                \"goalFifthTransaction\": true,\n                \"goalTenthTransaction\": true,\n                \"goalThirtiethTransaction\": true,\n                \"goalFiftiethTransaction\": true,\n                \"goalFiveDayStreak\": false,\n                \"goalTenDayStreak\": false,\n                \"goalThirtyDayStreak\": false,\n                \"goalBookDelivery\": false\n            },\n            \"receiptInfo\": {\n                \"quota\": 10,\n                \"shared\": 9990\n            },\n            \"userReminderSettings\": [\n                {\n                    \"id\": 10121,\n                    \"day\": \"FRIDAY\",\n                    \"hours\": 21,\n                    \"minutes\": 37,\n                    \"enabled\": true,\n                    \"utc_offset\": null,\n                    \"webEnabled\": null\n                },\n                {\n                    \"id\": 10117,\n                    \"day\": \"MONDAY\",\n                    \"hours\": 21,\n                    \"minutes\": 37,\n                    \"enabled\": true,\n                    \"utc_offset\": null,\n                    \"webEnabled\": null\n                },\n                {\n                    \"id\": 10122,\n                    \"day\": \"SATURDAY\",\n                    \"hours\": 21,\n                    \"minutes\": 37,\n                    \"enabled\": true,\n                    \"utc_offset\": null,\n                    \"webEnabled\": null\n                },\n                {\n                    \"id\": 10123,\n                    \"day\": \"SUNDAY\",\n                    \"hours\": 21,\n                    \"minutes\": 37,\n                    \"enabled\": true,\n                    \"utc_offset\": null,\n                    \"webEnabled\": null\n                },\n                {\n                    \"id\": 10120,\n                    \"day\": \"THURSDAY\",\n                    \"hours\": 21,\n                    \"minutes\": 37,\n                    \"enabled\": true,\n                    \"utc_offset\": null,\n                    \"webEnabled\": null\n                },\n                {\n                    \"id\": 10118,\n                    \"day\": \"TUESDAY\",\n                    \"hours\": 21,\n                    \"minutes\": 37,\n                    \"enabled\": true,\n                    \"utc_offset\": null,\n                    \"webEnabled\": null\n                },\n                {\n                    \"id\": 10119,\n                    \"day\": \"WEDNESDAY\",\n                    \"hours\": 0,\n                    \"minutes\": 0,\n                    \"enabled\": false,\n                    \"utc_offset\": null,\n                    \"webEnabled\": null\n                }\n            ],\n            \"businessInfo\": {\n                \"id\": 839,\n                \"name\": \"yummyummmy\",\n                \"description\": \"Types\",\n                \"location\": null,\n                \"currencyCode\": \"NGN\",\n                \"countryCode\": null\n            }\n        },\n        \"firebaseToken\": \"eyJhbGciOiJSUzI1NiJ9.eyJhdWQiOiJodHRwczovL2lkZW50aXR5dG9vbGtpdC5nb29nbGVhcGlzLmNvbS9nb29nbGUuaWRlbnRpdHkuaWRlbnRpdHl0b29sa2l0LnYxLklkZW50aXR5VG9vbGtpdCIsImV4cCI6MTYzOTk5Nzc2MCwiaWF0IjoxNjM5OTk0MTYwLCJpc3MiOiJmaXJlYmFzZS1hZG1pbnNkay0xa3BtdUBvemUtdGVzdC0zOWM4ZS5pYW0uZ3NlcnZpY2VhY2NvdW50LmNvbSIsInN1YiI6ImZpcmViYXNlLWFkbWluc2RrLTFrcG11QG96ZS10ZXN0LTM5YzhlLmlhbS5nc2VydmljZWFjY291bnQuY29tIiwidWlkIjoiKzIzNDgxMzY1MTYwMTYifQ.bonOrGKEKDnU8pkgCPE_cxq1fSeI_yHSSCGdZhUbOjXXWTDQ8ygTmM_Au_TEco2r3POGEiAeDlkaMNjJ7jGgQZ00aJJcnX8qXxIBZkznevJ8QNN8EKi6lqqB0NERaXohJ80V_HxpfS3DOhLCREUmDNObT8Hx1Kcgss4cP298W6S1jovi9uDyVsmiB13xWUX-Ldm8TpYB2_bKQ33FCsSlN1Wvs1lm-8nxNk6x71A_Qc65k7YE5s0fEb7vJnPU0Cv0kSi51GybCPgGvhiNXT8bUF-Lp1xHl92bXBUNO_PU_MHXMwAIkspNx_GI9H8guVM0yNvJwEmP1vGLmawUGqfgDQ\"\n    },\n    \"message\": \"Login successful\"\n}"
						}
					]
				},
				{
					"name": "Get business info only",
					"request": {
						"auth": {
							"type": "bearer",
							"bearer": [
								{
									"key": "token",
									"value": "eyJhbGciOiJSUzI1NiIsInR5cCI6IkpXVCJ9.eyJleHAiOjE2NDE0MTc0NDUsInVzZXJfbmFtZSI6IjIzNDgxMzY1MTYwMTYiLCJhdXRob3JpdGllcyI6WyJST0xFX0dVRVNUIl0sImp0aSI6IjU2NjY3ZmI5LWI1Y2UtNGI5YS1iOWRlLTJiMTM5ODYzMDVmYyIsImNsaWVudF9pZCI6Im96ZS1zYW5kYm94Iiwic2NvcGUiOlsicmVhZCIsIndyaXRlIl19.i-ZMF93SJMc0nXkhVBiz4wpN4RqGIBi3URzfvviJOElr6BwJ7XXO7zyCj9gTf0u404X9YrjnOaTnMYQY6PSbPV-yr30iuX0YceLtVKMJpAk_JjEc4MfDRHlSL4wD__Dafuwb2k-AVDJmvqnOAYFuijSByuql_9uhm0lfp4qZrqjYadQiE5GS6lqYtEuVm1c9ZsfK4-XauRCifWlNyHUC3vOtZdsTdXiEzWjNOvAIc6aBm7HjoFwI36Ctc6vKbyf435w4k7jJWPZ1KRZ3jmoZFiwcJMDWJ2aIiGhpJq0g7ES9oP03YGOMKL5xR_Nvv_oG1pMnd4VCm7IJhmXaErA6Xg",
									"type": "string"
								}
							]
						},
						"method": "GET",
						"header": [],
						"url": {
							"raw": "{{qa_url}}/api/v4/business",
							"host": [
								"{{qa_url}}"
							],
							"path": [
								"api",
								"v4",
								"business"
							]
						}
					},
					"response": [
						{
							"name": "Get business info only",
							"originalRequest": {
								"method": "GET",
								"header": [],
								"url": {
									"raw": "{{qa_url}}/api/v4/business",
									"host": [
										"{{qa_url}}"
									],
									"path": [
										"api",
										"v4",
										"business"
									]
								}
							},
							"status": "OK",
							"code": 200,
							"_postman_previewlanguage": "json",
							"header": [
								{
									"key": "Server",
									"value": "nginx/1.16.1"
								},
								{
									"key": "Date",
									"value": "Wed, 22 Dec 2021 07:09:19 GMT"
								},
								{
									"key": "Content-Type",
									"value": "application/json;charset=UTF-8"
								},
								{
									"key": "Transfer-Encoding",
									"value": "chunked"
								},
								{
									"key": "Connection",
									"value": "keep-alive"
								},
								{
									"key": "X-Content-Type-Options",
									"value": "nosniff"
								},
								{
									"key": "X-XSS-Protection",
									"value": "1; mode=block"
								},
								{
									"key": "Cache-Control",
									"value": "no-cache, no-store, max-age=0, must-revalidate"
								},
								{
									"key": "Pragma",
									"value": "no-cache"
								},
								{
									"key": "Expires",
									"value": "0"
								},
								{
									"key": "X-Frame-Options",
									"value": "DENY"
								}
							],
							"cookie": [],
							"body": "{\n    \"status\": \"SUCCESS\",\n    \"data\": [\n        {\n            \"id\": 839,\n            \"name\": \"yummyummmy\",\n            \"description\": \"Types\",\n            \"location\": \"Retest\",\n            \"currencyCode\": \"NGN\",\n            \"countryCode\": null,\n            \"businessPhoto\": \"661805639\",\n            \"goal\": {\n                \"id\": 4,\n                \"goal\": \"Be held accountable\",\n                \"goal_fr\": \"Être tenu responsable\"\n            },\n            \"businessIndustry\": {\n                \"id\": 13,\n                \"industry\": \"Construction & Real Estate\",\n                \"industry_fr\": \"Construction & Immobilier\"\n            }\n        }\n    ],\n    \"message\": \"Fetch business info successful\"\n}"
						}
					]
				},
				{
					"name": "Get user other details",
					"request": {
						"auth": {
							"type": "bearer",
							"bearer": [
								{
									"key": "token",
									"value": "eyJhbGciOiJSUzI1NiIsInR5cCI6IkpXVCJ9.eyJleHAiOjE2NDE0MTc0NDUsInVzZXJfbmFtZSI6IjIzNDgxMzY1MTYwMTYiLCJhdXRob3JpdGllcyI6WyJST0xFX0dVRVNUIl0sImp0aSI6IjU2NjY3ZmI5LWI1Y2UtNGI5YS1iOWRlLTJiMTM5ODYzMDVmYyIsImNsaWVudF9pZCI6Im96ZS1zYW5kYm94Iiwic2NvcGUiOlsicmVhZCIsIndyaXRlIl19.i-ZMF93SJMc0nXkhVBiz4wpN4RqGIBi3URzfvviJOElr6BwJ7XXO7zyCj9gTf0u404X9YrjnOaTnMYQY6PSbPV-yr30iuX0YceLtVKMJpAk_JjEc4MfDRHlSL4wD__Dafuwb2k-AVDJmvqnOAYFuijSByuql_9uhm0lfp4qZrqjYadQiE5GS6lqYtEuVm1c9ZsfK4-XauRCifWlNyHUC3vOtZdsTdXiEzWjNOvAIc6aBm7HjoFwI36Ctc6vKbyf435w4k7jJWPZ1KRZ3jmoZFiwcJMDWJ2aIiGhpJq0g7ES9oP03YGOMKL5xR_Nvv_oG1pMnd4VCm7IJhmXaErA6Xg",
									"type": "string"
								}
							]
						},
						"method": "GET",
						"header": [],
						"url": {
							"raw": "{{qa_url}}/api/v4/userDetails",
							"host": [
								"{{qa_url}}"
							],
							"path": [
								"api",
								"v4",
								"userDetails"
							]
						}
					},
					"response": [
						{
							"name": "Get user other details",
							"originalRequest": {
								"method": "GET",
								"header": [],
								"url": {
									"raw": "{{base_url}}/api/v4/userDetails",
									"host": [
										"{{base_url}}"
									],
									"path": [
										"api",
										"v4",
										"userDetails"
									]
								}
							},
							"status": "OK",
							"code": 200,
							"_postman_previewlanguage": "json",
							"header": [
								{
									"key": "X-Content-Type-Options",
									"value": "nosniff"
								},
								{
									"key": "X-XSS-Protection",
									"value": "1; mode=block"
								},
								{
									"key": "Cache-Control",
									"value": "no-cache, no-store, max-age=0, must-revalidate"
								},
								{
									"key": "Pragma",
									"value": "no-cache"
								},
								{
									"key": "Expires",
									"value": "0"
								},
								{
									"key": "X-Frame-Options",
									"value": "DENY"
								},
								{
									"key": "Content-Type",
									"value": "application/json;charset=UTF-8"
								},
								{
									"key": "Transfer-Encoding",
									"value": "chunked"
								},
								{
									"key": "Date",
									"value": "Tue, 21 Dec 2021 11:04:42 GMT"
								}
							],
							"cookie": [],
							"body": "{\n    \"status\": \"SUCCESS\",\n    \"data\": {\n        \"hdyhau\": {\n            \"id\": 1,\n            \"hdyhau\": \"A Friend\"\n        },\n        \"dateOfBirth\": 1625612400000,\n        \"gender\": \"Female\",\n        \"maritalStatus\": \"Engaged\",\n        \"numOfChildren\": null,\n        \"emergencyContactName\": null,\n        \"emergencyContactPhoneNo\": null,\n        \"education\": \"Secondary\",\n        \"userLocation\": \"National\",\n        \"reminderSettings\": [\n            {\n                \"id\": 10121,\n                \"day\": \"FRIDAY\",\n                \"hours\": 21,\n                \"minutes\": 37,\n                \"enabled\": true,\n                \"utc_offset\": null,\n                \"webEnabled\": null\n            },\n            {\n                \"id\": 10117,\n                \"day\": \"MONDAY\",\n                \"hours\": 21,\n                \"minutes\": 37,\n                \"enabled\": true,\n                \"utc_offset\": null,\n                \"webEnabled\": null\n            },\n            {\n                \"id\": 10122,\n                \"day\": \"SATURDAY\",\n                \"hours\": 21,\n                \"minutes\": 37,\n                \"enabled\": true,\n                \"utc_offset\": null,\n                \"webEnabled\": null\n            },\n            {\n                \"id\": 10123,\n                \"day\": \"SUNDAY\",\n                \"hours\": 21,\n                \"minutes\": 37,\n                \"enabled\": true,\n                \"utc_offset\": null,\n                \"webEnabled\": null\n            },\n            {\n                \"id\": 10120,\n                \"day\": \"THURSDAY\",\n                \"hours\": 21,\n                \"minutes\": 37,\n                \"enabled\": true,\n                \"utc_offset\": null,\n                \"webEnabled\": null\n            },\n            {\n                \"id\": 10118,\n                \"day\": \"TUESDAY\",\n                \"hours\": 21,\n                \"minutes\": 37,\n                \"enabled\": true,\n                \"utc_offset\": null,\n                \"webEnabled\": null\n            },\n            {\n                \"id\": 10119,\n                \"day\": \"WEDNESDAY\",\n                \"hours\": 0,\n                \"minutes\": 0,\n                \"enabled\": false,\n                \"utc_offset\": null,\n                \"webEnabled\": null\n            }\n        ],\n        \"userGoals\": {\n            \"id\": 1428,\n            \"goalSeeDashboard\": true,\n            \"goalSendReceipt\": true,\n            \"goalAddCategory\": true,\n            \"goalSetLocation\": true,\n            \"goalMrkUnpaid\": true,\n            \"goalRemindCustomer\": true,\n            \"goalReadCoach\": false,\n            \"goalFillAllFields\": true,\n            \"goalPaySalary\": true,\n            \"goalGetPremium\": true,\n            \"goalOneMonthAnniversary\": true,\n            \"goalUseFilter\": true,\n            \"goalFifthTransaction\": true,\n            \"goalTenthTransaction\": true,\n            \"goalThirtiethTransaction\": true,\n            \"goalFiftiethTransaction\": true,\n            \"goalFiveDayStreak\": false,\n            \"goalTenDayStreak\": false,\n            \"goalThirtyDayStreak\": false,\n            \"goalBookDelivery\": false\n        },\n        \"prefs\": {\n            \"termsAndConditions\": true,\n            \"viewedTrialBreakdown\": true\n        },\n        \"country\": \"Ghana\",\n        \"regionOrState\": \"Greater Accra Region\"\n    },\n    \"message\": \"Fetch user other details successful\"\n}"
						}
					]
				},
				{
					"name": "Get employees basic details",
					"request": {
						"auth": {
							"type": "bearer",
							"bearer": [
								{
									"key": "token",
									"value": "eyJhbGciOiJSUzI1NiIsInR5cCI6IkpXVCJ9.eyJleHAiOjE2NDEzNTUyODQsInVzZXJfbmFtZSI6IjIzNDgxNjExMTUyNzciLCJhdXRob3JpdGllcyI6WyJST0xFX0dVRVNUIl0sImp0aSI6Ijk3YTllYmFlLWY2MjEtNGFmNi05YWNhLWVjMDFiNzEyOGNiZSIsImNsaWVudF9pZCI6Im96ZS1zYW5kYm94Iiwic2NvcGUiOlsicmVhZCIsIndyaXRlIl19.K2dFNpVxq6jf2eaAoHTmpUBu72XQgera96oonUBc8MOIqVl_aML21wQ2Ns35i234XrgRbxzJBBNOSzuI5qWFynHkWgvby0IxCKJfWyQWu3SovqBT7Z9nIcmxEuhvyNkKtGrXJb-gBGuK7uYwyFteUpigtP92fHZzdeepuvCiBWvk0vG69qkWLcHOJyz7kNm3k35a6myo0q6dA2VmxznP-ip8CNwL4JylKRg6pajMJs1jyAKRT9T7c1rYsRSplY7QMFeU6ibmWPlF8Elb_qoQki0NEBOiSmLALqH96c_5yggKW8JE-e4AuKgsXfaLrFlYxlNKFHDjYGq0EfAektqUqg",
									"type": "string"
								}
							]
						},
						"method": "GET",
						"header": [],
						"url": {
							"raw": "{{base_url}}/api/v4/business/839/employees",
							"host": [
								"{{base_url}}"
							],
							"path": [
								"api",
								"v4",
								"business",
								"839",
								"employees"
							]
						}
					},
					"response": [
						{
							"name": "Get employees basic details",
							"originalRequest": {
								"method": "GET",
								"header": [],
								"url": {
									"raw": "{{base_url}}/api/v4/business/839/employees",
									"host": [
										"{{base_url}}"
									],
									"path": [
										"api",
										"v4",
										"business",
										"839",
										"employees"
									]
								}
							},
							"status": "OK",
							"code": 200,
							"_postman_previewlanguage": "json",
							"header": [
								{
									"key": "X-Content-Type-Options",
									"value": "nosniff"
								},
								{
									"key": "X-XSS-Protection",
									"value": "1; mode=block"
								},
								{
									"key": "Cache-Control",
									"value": "no-cache, no-store, max-age=0, must-revalidate"
								},
								{
									"key": "Pragma",
									"value": "no-cache"
								},
								{
									"key": "Expires",
									"value": "0"
								},
								{
									"key": "X-Frame-Options",
									"value": "DENY"
								},
								{
									"key": "Content-Type",
									"value": "application/json;charset=UTF-8"
								},
								{
									"key": "Transfer-Encoding",
									"value": "chunked"
								},
								{
									"key": "Date",
									"value": "Tue, 04 Jan 2022 23:01:54 GMT"
								}
							],
							"cookie": [],
							"body": "{\n    \"status\": \"SUCCESS\",\n    \"data\": [\n        {\n            \"id\": 1722,\n            \"role\": \"ROLE_BUSINESS_OWNER\",\n            \"name\": \"Opeye Grace\",\n            \"imageUri\": \"Profile - Mixpanel _ Product Analytics - Google Ch.png\",\n            \"email\": \"opeyemi@oze.guru\",\n            \"phoneNo\": \"+2348136516016\"\n        },\n        {\n            \"id\": 1732,\n            \"role\": \"ROLE_MANAGER\",\n            \"name\": \"Jimmm Jumm\",\n            \"imageUri\": null,\n            \"email\": \"Opeyemi@g.com\",\n            \"phoneNo\": \"+2348169696969\"\n        },\n        {\n            \"id\": 1734,\n            \"role\": \"ROLE_MANAGER\",\n            \"name\": \"Yup Yeah\",\n            \"imageUri\": null,\n            \"email\": \"testinganythingonoze@gmail.com\",\n            \"phoneNo\": \"+2348138383838\"\n        },\n        {\n            \"id\": 1783,\n            \"role\": \"ROLE_MANAGER\",\n            \"name\": \"Yuu Zuu\",\n            \"imageUri\": null,\n            \"email\": \"Yuriz@gmail.com\",\n            \"phoneNo\": \"+2348154525452\"\n        },\n        {\n            \"id\": 1789,\n            \"role\": \"ROLE_EMPLOYEE\",\n            \"name\": \"Free Dom\",\n            \"imageUri\": null,\n            \"email\": \"opeyemi56@gmail.com\",\n            \"phoneNo\": \"+2348185858585\"\n        },\n        {\n            \"id\": 1790,\n            \"role\": \"ROLE_EMPLOYEE\",\n            \"name\": \"Minzy Frush\",\n            \"imageUri\": null,\n            \"email\": \"opeyemi@int.com\",\n            \"phoneNo\": \"+2348172727272\"\n        },\n        {\n            \"id\": 1911,\n            \"role\": \"ROLE_MANAGER\",\n            \"name\": \"Ope hunt\",\n            \"imageUri\": null,\n            \"email\": \"oduunn@mailinator.com\",\n            \"phoneNo\": \"+2348121213161\"\n        }\n    ],\n    \"message\": \"Fetch employees for business successful\"\n}"
						}
					]
				}
			]
		},
		{
			"name": "SignUp",
			"item": [
				{
					"name": "SignUp",
					"event": [
						{
							"listen": "test",
							"script": {
								"exec": [
									"pm.test(\"Status code is 200\", function () {\r",
									"    pm.response.to.have.status(200);\r",
									"});\r",
									"\r",
									"pm.test(\"Status is SUCCESS\", function () {\r",
									"    var jsonData = pm.response.json();\r",
									"    pm.expect(jsonData.status).to.eql(\"SUCCESS\");\r",
									"});\r",
									"\r",
									"pm.test(\"PhoneNo is = 233277444387\", function () {\r",
									"    var jsonData = pm.response.json();\r",
									"    pm.expect(jsonData.data.phoneNo).to.eql(\"233277444870\");\r",
									"});\r",
									"pm.test(\"username is = 233277444387\", function () {\r",
									"    var jsonData = pm.response.json();\r",
									"    pm.expect(jsonData.data.username).to.eql(\"233277444870\");\r",
									"});\r",
									"pm.test(\"ID is Present\", function () {\r",
									"    pm.expect(pm.response.text()).to.include(\"id\");\r",
									"});\r",
									"pm.test(\"email is = neon@oze.guru\", function () {\r",
									"    var jsonData = pm.response.json();\r",
									"    pm.expect(jsonData.data.email).to.eql(\"neon@oze.guru\");\r",
									"});\r",
									"pm.test(\"Role Name is = ROLE_BUSINESS_OWNER\", function () {\r",
									"    var jsonData = pm.response.json();\r",
									"    pm.expect(jsonData.data.roles[0].name).to.eql(\"ROLE_BUSINESS_OWNER\");\r",
									"});\r",
									"pm.test(\"activeFeatures is Present\", function () {\r",
									"    pm.expect(pm.response.text()).to.include(\"activeFeatures\");\r",
									"});\r",
									"pm.test(\"PHONE_ACCESS is Present\", function () {\r",
									"    pm.expect(pm.response.text()).to.include(\"PHONE_ACCESS\");\r",
									"});\r",
									"pm.test(\"ONE_USER_ACCESS is Present\", function () {\r",
									"    pm.expect(pm.response.text()).to.include(\"ONE_USER_ACCESS\");\r",
									"});\r",
									"pm.test(\"RECORD_SALES_EXPENSES is Present\", function () {\r",
									"    pm.expect(pm.response.text()).to.include(\"RECORD_SALES_EXPENSES\");\r",
									"});\r",
									"pm.test(\"RECORD_NS_NE is Present\", function () {\r",
									"    pm.expect(pm.response.text()).to.include(\"RECORD_NS_NE\");\r",
									"});\r",
									"pm.test(\"CHANGE_TRX_STATUS is Present\", function () {\r",
									"    pm.expect(pm.response.text()).to.include(\"CHANGE_TRX_STATUS\");\r",
									"});\r",
									"pm.test(\"TRACK_DEBTS is Present\", function () {\r",
									"    pm.expect(pm.response.text()).to.include(\"TRACK_DEBTS\");\r",
									"});\r",
									"pm.test(\"TEN_RECEIPTS_PER_MONTH is Present\", function () {\r",
									"    pm.expect(pm.response.text()).to.include(\"TEN_RECEIPTS_PER_MONTH\");\r",
									"});\r",
									"pm.test(\"RECEIVE_PAYMENT_REMINDERS is Present\", function () {\r",
									"    pm.expect(pm.response.text()).to.include(\"RECEIVE_PAYMENT_REMINDERS\");\r",
									"});\r",
									"pm.test(\"PHONE_ACCESS is Present\", function () {\r",
									"    pm.expect(pm.response.text()).to.include(\"PHONE_ACCESS\");\r",
									"});\r",
									"pm.test(\"RECEIVE_AND_SEND_DIGITAL_PAYMENT is Present\", function () {\r",
									"    pm.expect(pm.response.text()).to.include(\"RECEIVE_AND_SEND_DIGITAL_PAYMENT\");\r",
									"});\r",
									"pm.test(\"SIMPLE_DASHBOARD_ACCESS is Present\", function () {\r",
									"    pm.expect(pm.response.text()).to.include(\"SIMPLE_DASHBOARD_ACCESS\");\r",
									"});\r",
									"pm.test(\"CS_ONLY is Present\", function () {\r",
									"    pm.expect(pm.response.text()).to.include(\"CS_ONLY\");\r",
									"});\r",
									"pm.test(\"BOOK_DELIVERIES is Present\", function () {\r",
									"    pm.expect(pm.response.text()).to.include(\"BOOK_DELIVERIES\");\r",
									"});\r",
									"pm.test(\"CANNOT_DOWNLOAD_TRX_DATA is Present\", function () {\r",
									"    pm.expect(pm.response.text()).to.include(\"CANNOT_DOWNLOAD_TRX_DATA\");\r",
									"});\r",
									"pm.test(\"NO_CUSTOM_FILTER is Present\", function () {\r",
									"    pm.expect(pm.response.text()).to.include(\"NO_CUSTOM_FILTER\");\r",
									"});\r",
									"pm.test(\"NO_OZE_WEB is Present\", function () {\r",
									"    pm.expect(pm.response.text()).to.include(\"NO_OZE_WEB\");\r",
									"});\r",
									"pm.test(\"PROMO_PAYMENT_1_0_FREE_FEES is Present\", function () {\r",
									"    pm.expect(pm.response.text()).to.include(\"PROMO_PAYMENT_1_0_FREE_FEES\");\r",
									"});\r",
									"pm.test(\"TC is = True\", function () {\r",
									"    var jsonData = pm.response.json();\r",
									"    pm.expect(jsonData.data.prefs.termsAndConditions).to.eql(true);\r",
									"});\r",
									"pm.test(\"activeSubscription is Present\", function () {\r",
									"    pm.expect(pm.response.text()).to.include(\"activeSubscription\");\r",
									"});\r",
									"pm.test(\"userGoals is Present\", function () {\r",
									"    pm.expect(pm.response.text()).to.include(\"userGoals\");\r",
									"});\r",
									"pm.test(\"receiptInfo is Present\", function () {\r",
									"    pm.expect(pm.response.text()).to.include(\"receiptInfo\");\r",
									"});\r",
									"pm.test(\"userReminderSettings is Present\", function () {\r",
									"    pm.expect(pm.response.text()).to.include(\"userReminderSettings\");\r",
									"});\r",
									"pm.test(\"businessInfo is Present\", function () {\r",
									"    pm.expect(pm.response.text()).to.include(\"businessInfo\");\r",
									"});\r",
									"pm.test(\"firebaseToken is Present\", function () {\r",
									"    pm.expect(pm.response.text()).to.include(\"firebaseToken\");\r",
									"});\r",
									"pm.test(\"Message is = USER_ACCOUNT_CREATED\", function () {\r",
									"    var jsonData = pm.response.json();\r",
									"    pm.expect(jsonData.message).to.eql(\"USER_ACCOUNT_CREATED\");\r",
									"});\r",
									"pm.test(\"Response time is less than 2000ms\", function () {\r",
									"    pm.expect(pm.response.responseTime).to.be.below(2000);\r",
									"});"
								],
								"type": "text/javascript"
							}
						}
					],
					"request": {
						"method": "POST",
						"header": [],
						"body": {
							"mode": "raw",
							"raw": "{\n    \"phone\": \"233277444870\",\n    \"email\": \"neon@oze.guru\",\n    \"password\": \"Verylongpassword\",\n    \"acceptedTerms\": true,\n    \"customerId\": \"\",\n    \"hdyhau\": {\n        \"id\": 2,\n        \"hdyhau\": \"Facebook\"\n    },\n    \"enterpriseReferral\": \"FCMB_BZ\",\n    \"sendWelcomeMessage\": true\n}",
							"options": {
								"raw": {
									"language": "json"
								}
							}
						},
						"url": {
							"raw": "{{qa_url}}/v4/signup",
							"host": [
								"{{qa_url}}"
							],
							"path": [
								"v4",
								"signup"
							]
						}
					},
					"response": []
				},
				{
					"name": "SignUp - No Cash Balance",
					"request": {
						"method": "POST",
						"header": [],
						"body": {
							"mode": "raw",
							"raw": "{\n    \"phone\": \"233277444444\",\n    \"email\": \"neon@oze.guru\",\n    \"password\": \"Verylongpassword\",\n    \"acceptedTerms\": true,\n    \"customerId\": \"\",\n    \"hdyhau\": {\n        \"id\": 2,\n        \"hdyhau\": \"Facebook\"\n    },\n    \"enterpriseReferral\": \"FCMB_BZ\",\n    \"sendWelcomeMessage\": true\n}",
							"options": {
								"raw": {
									"language": "json"
								}
							}
						},
						"url": {
							"raw": "{{qa_url}}/v4/signup",
							"host": [
								"{{qa_url}}"
							],
							"path": [
								"v4",
								"signup"
							]
						}
					},
					"response": []
				},
				{
					"name": "SignUp - Invalid Phone No",
					"request": {
						"method": "POST",
						"header": [],
						"body": {
							"mode": "raw",
							"raw": "{\n    \"phone\": \"2332774444\",\n    \"email\": \"neon@oze.guru\",\n    \"password\": \"Verylongpassword\",\n    \"acceptedTerms\": true,\n    \"customerId\": \"\",\n    \"hdyhau\": {\n        \"id\": 2,\n        \"hdyhau\": \"Facebook\"\n    },\n    \"enterpriseReferral\": \"FCMB_BZ\",\n    \"sendWelcomeMessage\": true\n}",
							"options": {
								"raw": {
									"language": "json"
								}
							}
						},
						"url": {
							"raw": "{{qa_url}}/v4/signup",
							"host": [
								"{{qa_url}}"
							],
							"path": [
								"v4",
								"signup"
							]
						}
					},
					"response": []
				},
				{
					"name": "SignUp - Phone Number Already Exist",
					"request": {
						"method": "POST",
						"header": [],
						"body": {
							"mode": "raw",
							"raw": "{\n    \"phone\": \"233277444444\",\n    \"email\": \"neon@oze.guru\",\n    \"password\": \"Verylongpassword\",\n    \"acceptedTerms\": true,\n    \"customerId\": \"\",\n    \"hdyhau\": {\n        \"id\": 2,\n        \"hdyhau\": \"Facebook\"\n    },\n    \"enterpriseReferral\": \"FCMB_BZ\",\n    \"sendWelcomeMessage\": true\n}",
							"options": {
								"raw": {
									"language": "json"
								}
							}
						},
						"url": {
							"raw": "{{qa_url}}/v4/signup",
							"host": [
								"{{qa_url}}"
							],
							"path": [
								"v4",
								"signup"
							]
						}
					},
					"response": []
				}
			]
		},
		{
			"name": "Check username availability",
			"request": {
				"method": "GET",
				"header": [],
				"url": {
					"raw": "{{qa_url}}/v4/users/2348136543444",
					"host": [
						"{{qa_url}}"
					],
					"path": [
						"v4",
						"users",
						"2348136543444"
					]
				}
			},
			"response": [
				{
					"name": "Check username availability",
					"originalRequest": {
						"method": "GET",
						"header": [],
						"url": {
							"raw": "{{base_url}}/v4/users/2348136516016",
							"host": [
								"{{base_url}}"
							],
							"path": [
								"v4",
								"users",
								"2348136516016"
							]
						}
					},
					"status": "OK",
					"code": 200,
					"_postman_previewlanguage": "json",
					"header": [
						{
							"key": "X-Content-Type-Options",
							"value": "nosniff"
						},
						{
							"key": "X-XSS-Protection",
							"value": "1; mode=block"
						},
						{
							"key": "Cache-Control",
							"value": "no-cache, no-store, max-age=0, must-revalidate"
						},
						{
							"key": "Pragma",
							"value": "no-cache"
						},
						{
							"key": "Expires",
							"value": "0"
						},
						{
							"key": "X-Frame-Options",
							"value": "DENY"
						},
						{
							"key": "Content-Type",
							"value": "application/json;charset=UTF-8"
						},
						{
							"key": "Transfer-Encoding",
							"value": "chunked"
						},
						{
							"key": "Date",
							"value": "Tue, 21 Dec 2021 20:43:44 GMT"
						}
					],
					"cookie": [],
					"body": "{\n    \"status\": \"SUCCESS\",\n    \"data\": false,\n    \"message\": \"Username has been taken\"\n}"
				}
			]
		}
	],
	"event": [
		{
			"listen": "prerequest",
			"script": {
				"type": "text/javascript",
				"exec": [
					""
				]
			}
		},
		{
			"listen": "test",
			"script": {
				"type": "text/javascript",
				"exec": [
					""
				]
			}
		}
	],
	"variable": [
		{
			"key": "base_url",
			"value": "http://localhost:8095"
		},
		{
			"key": "your_phone_number",
			"value": "+233546746784"
		},
		{
			"key": "your_oze_password",
			"value": "MyOzePassword12!@"
		},
		{
			"key": "qa_url",
			"value": "https://test-sos.oze.guru"
		}
	]
}